Plotly
…
## The following object is masked from 'package:graphics':
## 
##     layout

Loading NYC Restaurant Inspection Data

rest_inspec = 
  rest_inspec

rest_inspec %>% 
  count(cuisine_description) %>% 
  arrange(desc(n))

## # A tibble: 85 × 2
##    cuisine_description                                                  n
##    <chr>                                                            <int>
##  1 American                                                         90029
##  2 Chinese                                                          42156
##  3 Latin (Cuban, Dominican, Puerto Rican, South & Central American) 18836
##  4 Pizza                                                            18438
##  5 Italian                                                          17637
##  6 CafÃ©/Coffee/Tea                                                 15877
##  7 Mexican                                                          15083
##  8 Japanese                                                         14209
##  9 Caribbean                                                        12947
## 10 Bakery                                                           11884
## # … with 75 more rows
…
rest_inspec %>% 
  mutate(cuisine_description = fct_reorder(cuisine_description, score)) %>% 
  plot_ly(y = ~score, color = ~cuisine_description, type = "box", colors = "viridis")

rest_inspec %>% 
  group_by(boro, cuisine_description) %>% 
  count(boro) %>% 
  mutate(boro = fct_reorder(boro, n)) %>% 
  plot_ly(x = ~boro, y = ~n, type = "bar", color = ~cuisine_description)

rest_inspec %>%
  separate(inspection_date, into = c("year", "month", "day"), convert = TRUE)

## # A tibble: 50,559 × 11
##    boro      critical_flag cuisine_descrip… dba    year month   day score zipcode
##    <chr>     <chr>         <chr>            <chr> <int> <int> <int> <int>   <int>
##  1 MANHATTAN Not Critical  Cafe             LUNA   2015     6    22    23   10001
##  2 MANHATTAN Critical      Cafe             DUNK…  2014    10     1     8   10001
##  3 MANHATTAN Not Critical  Cafe             STAR…  2017     5    26     3   10001
##  4 MANHATTAN Critical      Italian          SALU…  2015     5    20     9   10001
##  5 MANHATTAN Critical      Cafe             ARGO…  2015     6    25    12   10001
##  6 MANHATTAN Critical      Cafe             PRIM…  2017     8    18     7   10001
##  7 MANHATTAN Critical      Cafe             THIN…  2016     6     7    12   10001
##  8 MANHATTAN Critical      Cafe             MADM…  2016     8     8    12   10001
##  9 MANHATTAN Critical      Italian          INNS…  2016     7    22     8   10001
## 10 MANHATTAN Not Critical  Cafe             STAR…  2017     4    17     3   10001
## # … with 50,549 more rows, and 2 more variables: grade <chr>, building <chr>
